{
  "page": {
    "size": 20,
    "number": 1,
    "totalPages": 2,
    "totalElements": 40
  },
  "content": [
    {
      "name": {
        "forename": "John",
        "surname": "O'Connor"
      },
      "gender": "Male",
      "dateOfBirth": "2000-05-06",
      "otherIds": {
        "crn": "X098112"
      }
    },
    {
      "name": {
        "forename": "John",
        "surname": "O'Connor"
      },
      "gender": "Male",
      "dateOfBirth": "2001-06-06",
      "otherIds": {
        "crn": "X098113"
      }
    },
    {
      "name": {
        "forename": "John",
        "surname": "O'Connor"
      },
      "gender": "Male",
      "dateOfBirth": "2002-05-06",
      "otherIds": {
        "crn": "X098114"
      }
    }
  ]
}
