{
  "page": {
    "size": 20,
    "number": 0,
    "totalPages": 2,
    "totalElements": 40
  },
  "content": [
    {
      "name": {
        "forename": "John",
        "surname": "O'Connor"
      },
      "gender": "Male",
      "dateOfBirth": "1980-05-06",
      "identifiers": {
        "crn": "X098092"
      }
    },
    {
      "name": {
        "forename": "John",
        "surname": "O'Connor"
      },
      "gender": "Male",
      "dateOfBirth": "1981-06-06",
      "identifiers": {
        "crn": "X098093"
      }
    },
    {
      "name": {
        "forename": "John",
        "surname": "O'Connor"
      },
      "gender": "Male",
      "dateOfBirth": "1982-05-06",
      "identifiers": {
        "crn": "X098094"
      }
    },
    {
      "name": {
        "forename": "John",
        "surname": "O'Connor"
      },
      "gender": "Male",
      "dateOfBirth": "1983-05-06",
      "identifiers": {
        "crn": "X098095"
      }
    },
    {
      "name": {
        "forename": "John",
        "surname": "O'Connor"
      },
      "gender": "Male",
      "dateOfBirth": "1984-05-06",
      "identifiers": {
        "crn": "X098096"
      }
    },
    {
      "name": {
        "forename": "John",
        "surname": "O'Connor"
      },
      "gender": "Male",
      "dateOfBirth": "1985-05-06",
      "identifiers": {
        "crn": "X098097"
      }
    },
    {
      "name": {
        "forename": "John",
        "surname": "O'Connor"
      },
      "gender": "Male",
      "dateOfBirth": "1986-05-06",
      "identifiers": {
        "crn": "X098098"
      }
    },
    {
      "name": {
        "forename": "John",
        "surname": "O'Connor"
      },
      "gender": "Male",
      "dateOfBirth": "1987-05-06",
      "identifiers": {
        "crn": "X098099"
      }
    },
    {
      "name": {
        "forename": "John",
        "surname": "O'Connor"
      },
      "gender": "Male",
      "dateOfBirth": "1988-05-06",
      "identifiers": {
        "crn": "X098100"
      }
    },
    {
      "name": {
        "forename": "John",
        "surname": "O'Connor"
      },
      "gender": "Male",
      "dateOfBirth": "1989-05-06",
      "identifiers": {
        "crn": "X098101"
      }
    },
    {
      "name": {
        "forename": "John",
        "surname": "O'Connor"
      },
      "gender": "Male",
      "dateOfBirth": "1990-05-06",
      "identifiers": {
        "crn": "X098102"
      }
    },
    {
      "name": {
        "forename": "John",
        "surname": "O'Connor"
      },
      "gender": "Male",
      "dateOfBirth": "1991-05-06",
      "identifiers": {
        "crn": "X098103"
      }
    },
    {
      "name": {
        "forename": "John",
        "surname": "O'Connor"
      },
      "gender": "Male",
      "dateOfBirth": "1992-05-06",
      "identifiers": {
        "crn": "X098104"
      }
    },
    {
      "name": {
        "forename": "John",
        "surname": "O'Connor"
      },
      "gender": "Male",
      "dateOfBirth": "1993-05-06",
      "identifiers": {
        "crn": "X098105"
      }
    },
    {
      "name": {
        "forename": "John",
        "surname": "O'Connor"
      },
      "gender": "Male",
      "dateOfBirth": "1994-05-06",
      "identifiers": {
        "crn": "X098106"
      }
    },
    {
      "name": {
        "forename": "John",
        "surname": "O'Connor"
      },
      "gender": "Male",
      "dateOfBirth": "1995-05-06",
      "identifiers": {
        "crn": "X098107"
      }
    },
    {
      "name": {
        "forename": "John",
        "surname": "O'Connor"
      },
      "gender": "Male",
      "dateOfBirth": "1996-05-06",
      "identifiers": {
        "crn": "X098108"
      }
    },
    {
      "name": {
        "forename": "John",
        "surname": "O'Connor"
      },
      "gender": "Male",
      "dateOfBirth": "1997-05-06",
      "identifiers": {
        "crn": "X098109"
      }
    },
    {
      "name": {
        "forename": "John",
        "surname": "O'Connor"
      },
      "gender": "Male",
      "dateOfBirth": "1998-05-06",
      "identifiers": {
        "crn": "X098110"
      }
    },
    {
      "name": {
        "forename": "John",
        "surname": "O'Connor"
      },
      "gender": "Male",
      "dateOfBirth": "1999-05-06",
      "identifiers": {
        "crn": "X098111"
      }
    }
  ]
}
