{
  "content": [
    {
      "offenderId": 2500369250,
      "title": "General",
      "firstName": "Harry",
      "surname": "Smith",
      "dateOfBirth": "1980-05-06",
      "gender": "Male",
      "otherIds": {
        "crn": "X098092"
      },
      "contactDetails": {},
      "offenderProfile": {
        "offenderLanguages": {},
        "remandStatus": "Not Applicable",
        "previousConviction": {}
      },
      "offenderManagers": [
        {
          "trustOfficer": {
            "forenames": "Unallocated",
            "surname": "Staff"
          },
          "staff": {
            "code": "ALLUATU",
            "forenames": "Unallocated",
            "surname": "Staff",
            "unallocated": true
          },
          "partitionArea": "National Data",
          "softDeleted": false,
          "team": {
            "code": "ALLUAT",
            "description": "Unallocated",
            "localDeliveryUnit": {
              "code": "ALLUAT",
              "description": "Unallocated"
            },
            "district": {
              "code": "ALLUAT",
              "description": "Unallocated"
            },
            "borough": {
              "code": "ALLUAT",
              "description": "Unallocated"
            }
          },
          "probationArea": {
            "code": "ALL",
            "description": "No Trust or Trust Unknown",
            "nps": true
          },
          "fromDate": "1900-01-01",
          "active": true,
          "allocationReason": {
            "code": "IN1",
            "description": "Initial Allocation"
          }
        }
      ],
      "softDeleted": false,
      "currentDisposal": "0",
      "partitionArea": "National Data",
      "currentRestriction": false,
      "restrictionMessage": "This is a restricted offender record. Please contact a system administrator",
      "currentExclusion": false,
      "exclusionMessage": "You are excluded from viewing this offender record. Please contact a system administrator",
      "highlight": {
        "surname": [
          "London"
        ]
      },
      "currentTier": "D2",
      "activeProbationManagedSentence": false,
      "probationStatus": {
        "status": "NOT_SENTENCED",
        "preSentenceActivity": true,
        "awaitingPsr": false
      },
      "age": 42
    },
    {
      "offenderId": 2500645682,
      "title": "Mr",
      "firstName": "Rob",
      "surname": "Test",
      "dateOfBirth": "1985-01-14",
      "gender": "Male",
      "otherIds": {
        "crn": "X467999"
      },
      "contactDetails": {
        "addresses": [
          {
            "from": "2022-01-17",
            "noFixedAbode": false,
            "notes": "Testing",
            "addressNumber": "25",
            "streetName": "Main Street",
            "town": "London",
            "county": "London",
            "postcode": "EW2 7EC",
            "telephoneNumber": "12045",
            "status": {
              "code": "MA",
              "description": "Postal"
            }
          }
        ]
      },
      "offenderProfile": {
        "offenderLanguages": {},
        "previousConviction": {},
        "riskColour": "Red",
        "disabilities": [
          {
            "disabilityId": 2500093089,
            "disabilityType": {
              "code": "VI",
              "description": "Visual Impairment"
            },
            "startDate": "2022-02-02",
            "endDate": "2022-02-02"
          },
          {
            "disabilityId": 2500093090,
            "disabilityType": {
              "code": "AP",
              "description": "Terminal Apathy"
            },
            "startDate": "2022-02-02",
            "endDate": "2022-02-02"
          },
          {
            "disabilityId": 2500093091,
            "disabilityType": {
              "code": "SI",
              "description": "Speech Impairment"
            },
            "startDate": "2022-02-02",
            "endDate": "2022-02-02"
          },
          {
            "disabilityId": 2500093092,
            "disabilityType": {
              "code": "HD",
              "description": "Hearing Difficulties"
            },
            "startDate": "2022-02-02",
            "endDate": "2022-02-02"
          },
          {
            "disabilityId": 2500093093,
            "disabilityType": {
              "code": "LD",
              "description": "Learning Difficulties"
            },
            "startDate": "2022-02-02",
            "endDate": "2022-02-02"
          },
          {
            "disabilityId": 2500093094,
            "disabilityType": {
              "code": "ND",
              "description": "No Disability"
            },
            "startDate": "2022-02-02",
            "endDate": "2022-02-02"
          },
          {
            "disabilityId": 2500093095,
            "disabilityType": {
              "code": "OD",
              "description": "Other"
            },
            "startDate": "2022-02-02",
            "endDate": "2022-02-02",
            "notes": "TEST"
          },
          {
            "disabilityId": 2500091088,
            "disabilityType": {
              "code": "HD",
              "description": "Hearing Difficulties"
            },
            "startDate": "2022-02-02",
            "endDate": "2022-02-02",
            "notes": "TEST"
          },
          {
            "disabilityId": 2500091089,
            "disabilityType": {
              "code": "MI",
              "description": "Mental Illness"
            },
            "startDate": "2022-01-28",
            "endDate": "2022-01-28",
            "notes": "Test Update"
          },
          {
            "disabilityId": 2500093088,
            "disabilityType": {
              "code": "DY",
              "description": "Dyslexia"
            },
            "startDate": "2022-01-18",
            "endDate": "2022-02-02",
            "notes": "TEST"
          }
        ]
      },
      "offenderAliases": [
        {
          "id": "2500117689",
          "dateOfBirth": "1985-01-14",
          "firstName": "Rob",
          "surname": "Test",
          "gender": "Male"
        }
      ],
      "offenderManagers": [
        {
          "trustOfficer": {
            "forenames": "ndelius126Forename",
            "surname": "ndelius126Surname"
          },
          "staff": {
            "code": "N07A726",
            "forenames": "ndelius126Forename",
            "surname": "ndelius126Surname",
            "unallocated": false
          },
          "partitionArea": "National Data",
          "softDeleted": false,
          "team": {
            "code": "N07N07",
            "description": "CHT",
            "localDeliveryUnit": {
              "code": "N07ALL",
              "description": "All NPS London"
            },
            "district": {
              "code": "N07ALL",
              "description": "All NPS London"
            },
            "borough": {
              "code": "N07ALL",
              "description": "All NPS London"
            }
          },
          "probationArea": {
            "code": "N07",
            "description": "NPS London",
            "nps": true
          },
          "fromDate": "2022-01-28",
          "active": true,
          "allocationReason": {
            "code": "RO",
            "description": "Allocated To Responsible Officer"
          }
        }
      ],
      "softDeleted": false,
      "currentDisposal": "1",
      "partitionArea": "National Data",
      "currentRestriction": false,
      "restrictionMessage": "This is a restricted offender record. Please contact a system administrator",
      "currentExclusion": false,
      "exclusionMessage": "You are excluded from viewing this offender record. Please contact a system administrator",
      "highlight": {
        "contactDetails.addresses.town": [
          "London"
        ],
        "contactDetails.addresses.county": [
          "London"
        ]
      },
      "currentTier": "A-0",
      "activeProbationManagedSentence": true,
      "probationStatus": {
        "status": "CURRENT",
        "inBreach": false,
        "preSentenceActivity": false,
        "awaitingPsr": false
      },
      "age": 37
    }
  ],
  "pageable": {
    "sort": {
      "empty": true,
      "sorted": false,
      "unsorted": true
    },
    "offset": 0,
    "pageSize": 10,
    "pageNumber": 0,
    "paged": true,
    "unpaged": false
  },
  "probationAreaAggregations": [
    {
      "code": "N07",
      "count": 788
    },
    {
      "code": "C01",
      "count": 65
    },
    {
      "code": "C17",
      "count": 2
    },
    {
      "code": "ALL",
      "count": 1
    },
    {
      "code": "C00",
      "count": 1
    },
    {
      "code": "C18",
      "count": 1
    },
    {
      "code": "N01",
      "count": 1
    },
    {
      "code": "N04",
      "count": 1
    }
  ],
  "suggestions": {
    "suggest": {
      "firstName": [
        {
          "text": "london",
          "offset": 0,
          "length": 6,
          "options": [
            {
              "text": "lonnoa",
              "score": 0.6666666,
              "freq": 16
            },
            {
              "text": "lono",
              "score": 0.5,
              "freq": 1
            }
          ]
        }
      ],
      "surname": [
        {
          "text": "london",
          "offset": 0,
          "length": 6,
          "options": [
            {
              "text": "langdon",
              "score": 0.6666666,
              "freq": 2
            },
            {
              "text": "lennon",
              "score": 0.6666666,
              "freq": 1
            }
          ]
        }
      ]
    }
  },
  "last": false,
  "totalPages": 86,
  "totalElements": 860,
  "size": 10,
  "number": 0,
  "sort": {
    "empty": true,
    "sorted": false,
    "unsorted": true
  },
  "first": true,
  "numberOfElements": 10,
  "empty": false
}